{
  "data": [
    {
      "name":"Zürich",
      "yes":"132700",
      "no":"270043",
      "percentage":"33%"
    },
    {
      "name":"Bern",
      "yes":"101805",
      "no":"183820",
      "percentage":"36%"
    },
    {
      "name":"Luzern",
      "yes":"30862",
      "no":"83965",
      "percentage":"27%"
    },
    {
      "name":"Uri",
      "yes":"2501",
      "no":"7108",
      "percentage":"26%"
    },
    {
      "name":"Schwyz",
      "yes":"8614",
      "no":"41584",
      "percentage":"17%"
    },
    {
      "name":"Obwalden",
      "yes":"2272",
      "no":"10523",
      "percentage":"18%"
    },
    {
      "name":"Nidwalden",
      "yes":"2710",
      "no":"12390",
      "percentage": "20%"
    },
    {
      "name":"Glarus",
      "yes":"2731",
      "no":"6328",
      "percentage": "19%"
    },
    {
      "name":"Zug",
      "yes":"8682",
      "no":"36075",
      "percentage": "29%"
    },
    {
      "name":"Freiburg",
      "yes":"23368",
      "no":"57694",
      "percentage": "30%"
    },
    {
      "name":"Basel-Stadt",
      "yes":"22646",
      "no":"32169",
      "percentage": "29%"
    },
    {
      "name":"Baselland",
      "yes":"23277",
      "no":"56380",
      "percentage": "32%"
    },
    {
      "name":"Schaffhausen",
      "yes":"9608",
      "no":"20736",
      "percentage": "28%"
    },
    {
      "name":"Appenzell AR",
      "yes":"5002",
      "no":"12755",
      "percentage": "21%"
    },
    {
      "name":"Appenzell AI",
      "yes":"885",
      "no":"3376",
      "percentage": "28%"
    },
    {
      "name":"St. Gallen",
      "yes":"37502",
      "no":"96462",
      "percentage": "24%"
    },
    {
      "name":"Graubünden",
      "yes":"12976",
      "no":"41146",
      "percentage": "25%"
    },
    {
      "name":"Aargau",
      "yes":"43585",
      "no":"128106",
      "percentage": "27%"
    },
    {
      "name":"Thurgau",
      "yes":"18014",
      "no":"48652",
      "percentage": "27%"
    },
    {
      "name":"Tessin",
      "yes":"25654",
      "no":"69043",
      "percentage": "28"
    },
    {
      "name":"Waadt",
      "yes":"52698",
      "no":"133256",
      "percentage": "16"
    },
    {
      "name":"Wallis",
      "yes":"16940",
      "no":"91284",
      "percentage": "34"
    },
    {
      "name":"Neuenburg",
      "yes":"14386",
      "no":"27926",
      "percentage": "28"
    },
    {
      "name":"Genf",
      "yes":"30795",
      "no":"78791",
      "percentage": "34"
    },
    {
      "name":"Jura",
      "yes":"6650",
      "no":"13050",
      "percentage": "28"
    },
    {
      "name":"Schweiz",
      "yes":"658218",
      "no":"1613394",
      "percentage": "30"
    }
  ]
}
