{
  "data": [
    {
      "id": 1,
      "title": "Gegen die Würde der landwirtschaftlichen Nutztiere (Hornkuh-Initiative)",
      "text": "In der Schweiz soll es mehr Kühe, Zuchtstiere, Ziegen und Zuchtziegenböcke mit Hörnern geben. Deshalb soll der Bund LandwirtInnen, die diese Tiere mit Hörnern haben, finanziell unterstützen.",
      "link": "https://www.admin.ch/gov/de/start/dokumentation/abstimmungen/20181125/hornkuh-initiative.html",
      "image": "https://picsum.photos/id/200/1000/300"
    },
    {
      "id": 2,
      "title": "1:12 - Für gerechte Löhne",
      "text": "Der höchste von einem Unternehmen bezahlte Lohn darf nicht höher sein als das Zwölffache des tiefsten vom gleichen Unternehmen bezahlten Lohnes. Als Lohn gilt die Summe aller Zuwendungen (Geld und Wert der Sach- und Dienstleistungen), welche im Zusammenhang mit einer Erwerbstätigkeit entrichtet werden.",
      "link": "https://www.bk.admin.ch/ch/d/pore/vi/vis375.html",
      "image": "https://picsum.photos/id/366/1000/300"
    },
    {
      "id": 3,
      "title": "Gruppe 1 for President",
      "text": "Der höchste von einem Unternehmen bezahlte Lohn darf nicht höher sein als das Zwölffache des tiefsten vom gleichen Unternehmen bezahlten Lohnes. Als Lohn gilt die Summe aller Zuwendungen (Geld und Wert der Sach- und Dienstleistungen), welche im Zusammenhang mit einer Erwerbstätigkeit entrichtet werden.",
      "link": "https://www.bk.admin.ch/ch/d/pore/vi/vis375.html",
      "image": "https://picsum.photos/id/667/1000/300"
    }
  ]
}
